id,method,cAcc,cRej,iAcc,iRej,FAR,FRR,hm,precision,recall,F1,Acc,time
0,stat,53,745,25,23,0.0324675324675,0.302631578947,0.0586435492096,0.679487179487,0.697368421053,0.688311688312,0.943262411348,45.357373
0,rel,76,770,0,0,0.0,0.0,0.0,1.0,1.0,1.0,1.0,30.001886
1,stat,53,745,25,23,0.0324675324675,0.302631578947,0.0586435492096,0.679487179487,0.697368421053,0.688311688312,0.943262411348,45.179704
1,rel,76,769,1,0,0.0012987012987,0.0,0.0012987012987,0.987012987013,1.0,0.993464052288,0.998817966903,30.431693
2,stat,52,742,28,24,0.0363636363636,0.315789473684,0.0652173913043,0.65,0.684210526316,0.666666666667,0.93853427896,45.844764
2,rel,75,770,0,1,0.0,0.0131578947368,0.0131578947368,1.0,0.986842105263,0.993377483444,0.998817966903,30.366475
3,stat,51,750,20,25,0.025974025974,0.328947368421,0.0481463649494,0.718309859155,0.671052631579,0.69387755102,0.946808510638,45.251552
3,rel,76,769,1,0,0.0012987012987,0.0,0.0012987012987,0.987012987013,1.0,0.993464052288,0.998817966903,29.946166
4,stat,57,749,21,19,0.0272727272727,0.25,0.0491803278689,0.730769230769,0.75,0.74025974026,0.952718676123,45.934845
4,rel,76,769,1,0,0.0012987012987,0.0,0.0012987012987,0.987012987013,1.0,0.993464052288,0.998817966903,30.212016
