id,method,cAcc,cRej,iAcc,iRej,FAR,FRR,hm,precision,recall,F1,Acc,time
0,stat,43,511,20,13,0.0376647834275,0.232142857143,0.0648136607254,0.68253968254,0.767857142857,0.72268907563,0.943781942078,34.559952
0,rel,56,531,0,0,0.0,0.0,0.0,1.0,1.0,1.0,1.0,19.713775
1,stat,44,505,26,12,0.0489642184557,0.214285714286,0.0797138477261,0.628571428571,0.785714285714,0.698412698413,0.935264054514,34.437947
1,rel,56,531,0,0,0.0,0.0,0.0,1.0,1.0,1.0,1.0,19.755142
2,stat,43,502,29,13,0.0546139359699,0.232142857143,0.0884250029319,0.597222222222,0.767857142857,0.671875,0.928449744463,34.683797
2,rel,56,531,0,0,0.0,0.0,0.0,1.0,1.0,1.0,1.0,19.723929
3,stat,42,510,21,14,0.0395480225989,0.25,0.0682926829268,0.666666666667,0.75,0.705882352941,0.940374787053,34.559954
3,rel,56,531,0,0,0.0,0.0,0.0,1.0,1.0,1.0,1.0,19.747491
4,stat,43,510,21,13,0.0395480225989,0.232142857143,0.0675826216116,0.671875,0.767857142857,0.716666666667,0.942078364566,34.434213
4,rel,56,531,0,0,0.0,0.0,0.0,1.0,1.0,1.0,1.0,19.748955
