id,method,cAcc,cRej,iAcc,iRej,FAR,FRR,hm,precision,recall,F1,Acc,time
0,stat,153,2199,155,60,0.0658453695837,0.281690140845,0.106740122235,0.496753246753,0.718309859155,0.587332053743,0.916244643553,121.402552
0,rel,206,2354,0,7,0.0,0.0328638497653,0.0328638497653,1.0,0.967136150235,0.983293556086,0.997273081418,182.501376
1,stat,153,2208,146,60,0.0620220900595,0.281690140845,0.101660690039,0.511705685619,0.718309859155,0.59765625,0.91975068173,120.922993
1,rel,201,2354,0,12,0.0,0.056338028169,0.056338028169,1.0,0.943661971831,0.971014492754,0.995325282431,180.221691
2,stat,155,2207,147,58,0.0624468988955,0.272300469484,0.101594942893,0.513245033113,0.727699530516,0.601941747573,0.920140241527,121.937393
2,rel,205,2354,0,8,0.0,0.037558685446,0.037558685446,1.0,0.962441314554,0.980861244019,0.996883521621,177.416902
3,stat,159,2198,156,54,0.0662701784197,0.253521126761,0.105074090705,0.504761904762,0.746478873239,0.602272727273,0.91819244254,120.959287
3,rel,204,2354,0,9,0.0,0.0422535211268,0.0422535211268,1.0,0.957746478873,0.978417266187,0.996493961823,179.552043
4,stat,150,2207,147,63,0.0624468988955,0.295774647887,0.10312171168,0.505050505051,0.704225352113,0.588235294118,0.91819244254,121.693545
4,rel,204,2354,0,9,0.0,0.0422535211268,0.0422535211268,1.0,0.957746478873,0.978417266187,0.996493961823,179.528776
