Size range: [3]
Repetitions 10
nValues: [ 0.1   0.15  0.2   0.25  0.3   0.32  0.34  0.36  0.38  0.4   0.4   0.41
  0.42  0.43  0.44  0.45  0.46  0.47  0.48  0.49  0.5   0.51  0.52  0.53
  0.54  0.55  0.56  0.57  0.58  0.59  0.6   0.61  0.62  0.63  0.64  0.65
  0.66  0.67  0.68  0.69  0.7   0.71  0.72  0.73  0.74  0.75  0.76  0.77
  0.78  0.79  0.8   0.82  0.84  0.86  0.88  0.9   0.92  0.94]
rValues: [ 0.1   0.15  0.2   0.25  0.3   0.35  0.4   0.45  0.5   0.55  0.6   0.65
  0.7   0.75  0.8   0.85  0.9 ]
Top 10 best results:
0.	0.2, 0.9	(0.51872675794769507, 0.0018399520583893061)
1.	0.2, 0.7	(0.49671391553776284, 0.0027629287233674766)
2.	0.2, 0.65	(0.49573688164728258, 0.0026762721528420727)
3.	0.2, 0.55	(0.4954795049204318, 0.0018674599599273053)
4.	0.2, 0.35	(0.49410895134853094, 0.0023513357278590061)
5.	0.2, 0.6	(0.49379382923769893, 0.0030141539556374271)
6.	0.2, 0.5	(0.49185346566357707, 0.0011500266061317216)
7.	0.2, 0.25	(0.49172628969881649, 0.0049320939198906717)
8.	0.2, 0.75	(0.49025093956684768, 0.0027157774290907546)
9.	0.2, 0.4	(0.490064738938083, 0.0020517931104230163)
